Task 4/iiitb_rv32i.vcd
$date
	Tue Apr 08 21:03:28 2025
$end
$version
	Icarus Verilog
$end
$timescale
	1s
$end
$scope module iiitb_rv32i_tb $end
$var wire 32 ! NPC [31:0] $end
$var wire 32 " WB_OUT [31:0] $end
$var reg 1 # RN $end
$var reg 1 $ clk $end
$scope module rv32 $end
$var wire 1 % RN $end
$var wire 1 & clk $end
$var reg 1 ' BR_EN $end
$var reg 32 ( EX_MEM_ALUOUT [31:0] $end
$var reg 32 ) EX_MEM_IR [31:0] $end
$var reg 32 * ID_EX_A [31:0] $end
$var reg 32 + ID_EX_B [31:0] $end
$var reg 32 , ID_EX_IMMEDIATE [31:0] $end
$var reg 32 - ID_EX_IR [31:0] $end
$var reg 32 . ID_EX_NPC [31:0] $end
$var reg 32 / ID_EX_RD [31:0] $end
$var reg 32 0 IF_ID_IR [31:0] $end
$var reg 32 1 IF_ID_NPC [31:0] $end
$var reg 32 2 MEM_WB_ALUOUT [31:0] $end
$var reg 32 3 MEM_WB_IR [31:0] $end
$var reg 32 4 MEM_WB_LDM [31:0] $end
$var reg 32 5 NPC [31:0] $end
$var reg 32 6 WB_OUT [31:0] $end
$upscope $end
$upscope $end
$enddefinitions $end
#0
$dumpvars
bx 6
b0 5
bx 4
bx 3
bx 2
bx 1
bx 0
bx /
bx .
bx -
bx ,
bx +
bx *
bx )
bx (
0'
1&
1%
1$
1#
bx "
b0 !
$end
#3
0$
0&
#5
0#
0%
#6
b1 1
b10001000001000001100000000 0
b1 5
b1 !
1$
1&
#9
0$
0&
#12
b1 .
b100010 ,
b10001000001000001100000000 -
b110 /
b10 +
b1 *
b10 1
b10001000001001001110000000 0
b10 5
b10 !
1$
1&
#15
0$
0&
#18
b11 (
b10001000001000001100000000 )
b10 .
b10001000001001001110000000 -
bx /
b11 1
b10001100001010010000000000 0
b11 5
b11 !
1$
1&
#21
0$
0&
#24
b11 .
b100011 ,
b10001100001010010000000000 -
b11 +
b11111111111111111111111111111111 (
b10001000001001001110000000 )
b11 2
b10001000001000001100000000 3
b100 1
b10010100010011010010000000 0
b100 5
b100 !
1$
1&
#27
0$
0&
#30
b11 6
b11 "
b11111111111111111111111111111111 2
b10001000001001001110000000 3
b1 (
b10001100001010010000000000 )
b100 .
b100101 ,
b10010100010011010010000000 -
b101 +
b10 *
b101 1
b10010000001100010100000000 0
b101 5
b101 !
1$
1&
#33
0$
0&
#36
b101 .
b100100 ,
b10010000001100010100000000 -
b100 +
b1 *
b111 (
b10010100010011010010000000 )
b1 2
b10001100001010010000000000 3
b11111111111111111111111111111111 6
b11111111111111111111111111111111 "
b110 1
b10010000010101010110000000 0
b110 5
b110 !
1$
1&
#39
0$
0&
#42
b1 6
b1 "
b111 2
b10010100010011010010000000 3
b101 (
b10010000001100010100000000 )
b110 .
b10010000010101010110000000 -
b10 *
b111 1
b10100100000011000000000 0
b111 5
b111 !
1$
1&
#45
0$
0&
#48
b111 .
b101 ,
b10100100000011000000000 -
b101 +
b100 *
b1 (
b10010000010101010110000000 )
b101 2
b10010000001100010100000000 3
b111 6
b111 "
b1000 1
b1000001001000110000001 0
b1000 5
b1000 !
1$
1&
#51
0$
0&
#54
b101 6
b101 "
b1 2
b10010000010101010110000000 3
b1001 (
b10100100000011000000000 )
b1000 .
b10 ,
b1000001001000110000001 -
b11 /
b10 +
b1 *
b1001 1
b1000001000011010000001 0
b1001 5
b1001 !
1$
1&
#57
0$
0&
#60
b1001 .
b1000001000011010000001 -
bx /
b11 (
b1000001001000110000001 )
b1001 2
b10100100000011000000000 3
b1 6
b1 "
b1010 1
b111100000000000000000010 0
b1010 5
b1010 !
1$
1&
#63
0$
0&
#66
b1001 6
b1001 "
b1000001001000110000001 3
b1000001000011010000001 )
b1010 .
b1111 ,
b111100000000000000000010 -
b0 /
bx +
b0 *
b1011 1
bx 0
b1011 5
b1011 !
1$
1&
#69
0$
0&
#72
b1011 .
bx ,
bx -
bx /
bx *
1'
b11001 (
b111100000000000000000010 )
b11 4
b1000001000011010000001 3
b1100 1
b1100 5
b1100 !
1$
1&
#75
0$
0&
#78
b11 6
b11 "
b111100000000000000000010 3
bx )
b1100 .
b1101 1
0'
b11001 5
b11001 !
1$
1&
#81
0$
0&
#84
b1101 .
bx 3
b11010 1
b1000010000011100000000 0
b11010 5
b11010 !
1$
1&
#87
0$
0&
#90
b11010 .
b10 ,
b1000010000011100000000 -
b10 +
b10 *
b11011 1
bx 0
b11011 5
b11011 !
1$
1&
#93
0$
0&
#96
b11011 .
bx ,
bx -
bx +
bx *
b100 (
b1000010000011100000000 )
b11100 1
b11100 5
b11100 !
1$
1&
#99
0$
0&
#102
b100 2
b1000010000011100000000 3
bx )
b11100 .
b11101 1
b11101 5
b11101 !
1$
1&
#105
0$
0&
#108
b11101 .
bx 3
b100 6
b100 "
b11110 1
b11110 5
b11110 !
1$
1&
#111
0$
0&
#114
b11110 .
b11111 1
b11111 5
b11111 !
1$
1&
#117
0$
0&
#120
b11111 .
b100000 1
b100000 5
b100000 !
1$
1&
#123
0$
0&
#126
b100000 .
b100001 1
b100001 5
b100001 !
1$
1&
#129
0$
0&
#132
b100001 .
b100010 1
b100010 5
b100010 !
1$
1&
#135
0$
0&
#138
b100010 .
b100011 1
b100011 5
b100011 !
1$
1&
#141
0$
0&
#144
b100011 .
b100100 1
b100100 5
b100100 !
1$
1&
#147
0$
0&
#150
b100100 .
b100101 1
b100101 5
b100101 !
1$
1&
#153
0$
0&
#156
b100101 .
b100110 1
b100110 5
b100110 !
1$
1&
#159
0$
0&
#162
b100110 .
b100111 1
b100111 5
b100111 !
1$
1&
#165
0$
0&
#168
b100111 .
b101000 1
b101000 5
b101000 !
1$
1&
#171
0$
0&
#174
b101000 .
b101001 1
b101001 5
b101001 !
1$
1&
#177
0$
0&
#180
b101001 .
b101010 1
b101010 5
b101010 !
1$
1&
#183
0$
0&
#186
b101010 .
b101011 1
b101011 5
b101011 !
1$
1&
#189
0$
0&
#192
b101011 .
b101100 1
b101100 5
b101100 !
1$
1&
#195
0$
0&
#198
b101100 .
b101101 1
b101101 5
b101101 !
1$
1&
#201
0$
0&
#204
b101101 .
b101110 1
b101110 5
b101110 !
1$
1&
#207
0$
0&
#210
b101110 .
b101111 1
b101111 5
b101111 !
1$
1&
#213
0$
0&
#216
b101111 .
b110000 1
b110000 5
b110000 !
1$
1&
#219
0$
0&
#222
b110000 .
b110001 1
b110001 5
b110001 !
1$
1&
#225
0$
0&
#228
b110001 .
b110010 1
b110010 5
b110010 !
1$
1&
#231
0$
0&
#234
b110010 .
b110011 1
b110011 5
b110011 !
1$
1&
#237
0$
0&
#240
b110011 .
b110100 1
b110100 5
b110100 !
1$
1&
#243
0$
0&
#246
b110100 .
b110101 1
b110101 5
b110101 !
1$
1&
#249
0$
0&
#252
b110101 .
b110110 1
b110110 5
b110110 !
1$
1&
#255
0$
0&
#258
b110110 .
b110111 1
b110111 5
b110111 !
1$
1&
#261
0$
0&
#264
b110111 .
b111000 1
b111000 5
b111000 !
1$
1&
#267
0$
0&
#270
b111000 .
b111001 1
b111001 5
b111001 !
1$
1&
#273
0$
0&
#276
b111001 .
b111010 1
b111010 5
b111010 !
1$
1&
#279
0$
0&
#282
b111010 .
b111011 1
b111011 5
b111011 !
1$
1&
#285
0$
0&
#288
b111011 .
b111100 1
b111100 5
b111100 !
1$
1&
#291
0$
0&
#294
b111100 .
b111101 1
b111101 5
b111101 !
1$
1&
#297
0$
0&
#300
b111101 .
b111110 1
b111110 5
b111110 !
1$
1&
